{
  "total_count" : "./total.txt",
  "current_count" : "./current.txt",
  "Trello" : {
    "app_name" : "Affogato BurnDown",
    "key" : "6f8ec7c2ff6a9023e2b270587ba12372",
    "secret" : "cb4eba30a186081e453779f546eb38019842f6e597cc8bb42492ff74bb97f042",
    "loginCallback" : "http://comments.skplanet.co.kr:3000/auth/result_trello"
  },
  "host" : "comments.skplanet.co.kr"
}
